@EndUserText.label: 'RAP HandsOn: Travel Projection View'
@AccessControl.authorizationCheck: #NOT_REQUIRED

@Metadata.allowExtensions: true
@Search.searchable: true
@ObjectModel.semanticKey: ['TravelID']

define root view entity ZRAPH_##_C_TravelWDTP
  provider contract transactional_query
  as projection on ZRAPH_##_I_TravelWDTP
{
  key     TravelUUID,

          @Search.defaultSearchElement: true
          TravelID,

          @Search.defaultSearchElement: true
          @Search.fuzzinessThreshold: 0.7
          @ObjectModel.text.element: ['AgencyName']
          @Consumption.valueHelpDefinition: [{ entity : {name: '/DMO/I_Agency', element: 'AgencyID'  } }]
          AgencyID,
          _Agency.Name       as AgencyName,

          @Search.defaultSearchElement: true
          @Search.fuzzinessThreshold: 0.7
          @ObjectModel.text.element: ['CustomerName']
          @Consumption.valueHelpDefinition: [{ entity : {name: '/DMO/I_Customer', element: 'CustomerID'  } }]
          CustomerID,
          _Customer.LastName as CustomerName,

          BeginDate,

          EndDate,

          BookingFee,

          TotalPrice,

          @Consumption.valueHelpDefinition: [{entity: {name: 'I_Currency', element: 'Currency' }}]
          CurrencyCode,

          Description,

          @Consumption.valueHelpDefinition: [{entity: { name:    'ZRAPH_I_OverallStatus',
                                                        element: 'TravelStatus' } }]
          @ObjectModel.foreignKey.association: '_TravelStatus'
          OverallStatus,

          LocalCreatedBy,

          LocalCreatedAt,

          LocalLastChangedBy,

          LocalLastChangedAt,

          LastChangedAt,

          /* Associations */
          _Booking         : redirected to composition child ZRAPH_##_C_BookingWDTP,
          _RoomReservation : redirected to composition child ZRAPH_##_C_RoomReservationWDTP,
          _Agency,
          _Currency,
          _Customer,
          _TravelStatus

}
